<?xml version="1.0" encoding="utf-8"?>
<!-- Generator: Adobe Illustrator 16.0.0, SVG Export Plug-In . SVG Version: 6.00 Build 0)  -->
<!DOCTYPE svg PUBLIC "-//W3C//DTD SVG 1.1//EN" "http://www.w3.org/Graphics/SVG/1.1/DTD/svg11.dtd">
<svg version="1.1" id="Layer_1" xmlns="http://www.w3.org/2000/svg" xmlns:xlink="http://www.w3.org/1999/xlink" x="0px" y="0px"
	 width="39.453px" height="35.438px" viewBox="0 0 39.453 35.438" enable-background="new 0 0 39.453 35.438" xml:space="preserve">
<g>
	<path fill="#A00089" d="M37.935,11.152l-9.031-7.6c-0.113-0.114-0.264-0.151-0.414-0.151H11.068c-0.15,0-0.301,0.037-0.414,0.151
		l-9.106,7.6c-0.152,0.113-0.227,0.264-0.227,0.453c0,0.188,0.037,0.338,0.15,0.488l5.568,6.172
		c0.227,0.262,0.604,0.262,0.868,0.074l2.482-1.881v14.938c0,0.34,0.301,0.641,0.641,0.641H28.49c0.34,0,0.639-0.301,0.639-0.641
		V16.609l2.334,1.656c0.264,0.188,0.639,0.148,0.828-0.076l5.645-6.096c0.113-0.113,0.188-0.301,0.188-0.488
		C38.162,11.453,38.085,11.266,37.935,11.152z M27.888,12.357l-16.18,17.949v-2.069l14.674-16.294l-0.865-0.791L11.708,26.431
		v-2.333L26.121,8.104l-0.867-0.79L11.708,22.328v-2.783L25.066,4.719h2.783v7.639H27.888z M27.888,14.088v1.919l-13.32,14.751
		h-1.732L27.888,14.088z M23.109,4.719l-3.387,3.95l-3.613-3.95H23.109z M14.341,4.719l4.629,5.004l-7.262,8.09V4.719H14.341z
		 M10.427,14.84l-2.783,2.107l-4.743-5.23l7.526-6.284V14.84z M16.148,30.758l11.74-12.982v12.982H16.148z M31.802,16.91
		l-1.92-1.354l3.613-3.989l-0.904-0.79l-3.463,3.837v-1.918l0.791-0.865l-0.791-0.715V5.471l7.451,6.246L31.802,16.91z"/>
</g>
</svg>
