<?xml version="1.0" encoding="utf-8"?>
<!-- Generator: Adobe Illustrator 16.0.0, SVG Export Plug-In . SVG Version: 6.00 Build 0)  -->
<!DOCTYPE svg PUBLIC "-//W3C//DTD SVG 1.1//EN" "http://www.w3.org/Graphics/SVG/1.1/DTD/svg11.dtd">
<svg version="1.1" id="Layer_1" xmlns="http://www.w3.org/2000/svg" xmlns:xlink="http://www.w3.org/1999/xlink" x="0px" y="0px"
	 width="39.453px" height="35.438px" viewBox="0 0 39.453 35.438" enable-background="new 0 0 39.453 35.438" xml:space="preserve">
<g>
	<path fill="#A00089" d="M34.205,5.197c-1.875-1.874-4.367-2.906-7.018-2.906c-2.649,0-5.141,1.032-7.016,2.906l-0.443,0.44
		l-0.44-0.44c-1.874-1.874-4.365-2.906-7.017-2.906c-2.65,0-5.143,1.032-7.016,2.906C3.382,7.07,2.351,9.562,2.349,12.213
		c0,2.649,1.031,5.143,2.906,7.018l14.473,14.473L34.205,19.23C38.072,15.361,38.072,9.065,34.205,5.197z M19.728,31.494
		L6.361,18.125c-1.579-1.58-2.448-3.68-2.448-5.912c0-2.233,0.869-4.333,2.448-5.912c1.58-1.579,3.679-2.448,5.91-2.448
		s4.331,0.87,5.913,2.45l1.544,1.543l1.548-1.543c1.579-1.58,3.678-2.449,5.911-2.449c2.232,0,4.332,0.869,5.91,2.449
		c1.577,1.576,2.445,3.676,2.445,5.911s-0.868,4.335-2.445,5.911L19.728,31.494z"/>
	<path fill="#A00089" d="M24.458,15.571h-2.813v-2.813c0-0.997-0.812-1.809-1.81-1.809h-0.515c-0.998,0-1.81,0.812-1.81,1.809v2.813
		H14.7c-0.997,0-1.808,0.811-1.808,1.808v0.517c0,0.997,0.811,1.808,1.808,1.808h2.813v2.814c0,0.997,0.812,1.808,1.81,1.808h0.515
		c0.998,0,1.81-0.811,1.81-1.808v-2.814h2.813c0.996,0,1.808-0.811,1.808-1.808V17.38C26.266,16.383,25.455,15.571,24.458,15.571z
		 M25.004,17.896c0,0.301-0.245,0.545-0.546,0.545h-4.074v4.077c0,0.3-0.246,0.544-0.548,0.544h-0.515
		c-0.301,0-0.546-0.244-0.546-0.544V18.44H14.7c-0.3,0-0.544-0.244-0.544-0.545v-0.517c0-0.301,0.244-0.546,0.544-0.546h4.076
		v-4.074c0-0.302,0.245-0.547,0.546-0.547h0.515c0.302,0,0.548,0.245,0.548,0.547v4.074h4.074c0.301,0,0.546,0.245,0.546,0.547
		V17.896z"/>
</g>
</svg>
