<?xml version="1.0" encoding="utf-8"?>
<!-- Generator: Adobe Illustrator 16.0.0, SVG Export Plug-In . SVG Version: 6.00 Build 0)  -->
<!DOCTYPE svg PUBLIC "-//W3C//DTD SVG 1.1//EN" "http://www.w3.org/Graphics/SVG/1.1/DTD/svg11.dtd">
<svg version="1.1" id="Layer_1" xmlns="http://www.w3.org/2000/svg" xmlns:xlink="http://www.w3.org/1999/xlink" x="0px" y="0px"
	 width="49.547px" height="43.776px" viewBox="0 0 49.547 43.776" enable-background="new 0 0 49.547 43.776" xml:space="preserve">
<path fill="#300F38" d="M2.002,11.456v13.638c0,0.42,0.339,0.762,0.756,0.762h7.119L8.43,26.718
	c-0.226,0.139-0.364,0.386-0.364,0.651v6.063c0,0.415,0.338,0.756,0.757,0.756h2.216c-0.354,0.705-0.541,1.482-0.541,2.271
	c0.086,3.014,2.592,5.381,5.601,5.31c2.425,0.046,4.599-1.49,5.363-3.792h12.371c1.255,0,2.272-1.018,2.272-2.272v-1.265
	l1.326-1.767h1.03c-0.031,0.031-0.061,0.061-0.09,0.092c-2.047,2.095-2.007,5.452,0.09,7.499c2.096,2.048,5.454,2.011,7.501-0.092
	c2.046-2.095,2.006-5.453-0.09-7.499h0.842c0.418,0,0.757-0.342,0.757-0.757c-0.001-2.497-2.021-4.522-4.517-4.525l-2.623,0.016
	l-4.362-6.86h1.649c1.675,0,3.034-1.356,3.034-3.028c0-1.676-1.359-3.033-3.034-3.033h-2.272c-0.164,0-0.324,0.056-0.455,0.154
	l-2.713,2.031l-3.965-1.322l-2.742-3.291c-0.137-0.163-0.289-0.313-0.452-0.45c0.771-0.567,1.229-1.468,1.232-2.426V7.042
	l0.882-0.146c0.368-0.06,0.634-0.378,0.636-0.747V4.636c0-1.675-1.358-3.034-3.033-3.034h-3.03c-1.675,0-3.031,1.359-3.031,3.034
	v3.029c0.003,0.643,0.279,1.254,0.759,1.682V9.94c0,0.492,0.166,0.975,0.47,1.364c-0.771,0.567-1.226,1.466-1.229,2.422v10.61
	h-1.516V11.456c0-0.421-0.339-0.762-0.757-0.762H2.758C2.341,10.694,2.002,11.035,2.002,11.456z M10.338,12.212v4.561H8.822v-4.561
	H10.338z M33.79,28.779l-1.613,3.795c-0.301-1.014-1.111-1.799-2.138-2.068v-6.169c0-1.676-1.354-3.029-3.027-3.029h-2.276V17.83
	l0.982,0.979c0.095,0.1,0.218,0.167,0.352,0.199l5.621,1.408L33.79,28.779z M30.798,33.433h-3.786v-1.517h2.272
	C30.119,31.916,30.798,32.593,30.798,33.433z M26.251,24.337H20.19v-1.516h6.821c0.835,0,1.514,0.675,1.514,1.516V30.4h-1.514
	v-5.307C27.012,24.676,26.669,24.337,26.251,24.337z M26.251,5.506l-3.913,0.655c-0.365,0.063-0.633,0.378-0.633,0.748v0.756
	c0,0.418-0.34,0.757-0.757,0.757c-0.418,0-0.758-0.339-0.758-0.757V4.636c0-0.838,0.679-1.519,1.515-1.519h3.03
	c0.839,0,1.516,0.681,1.516,1.519V5.506z M21.705,10.694c-0.42,0-0.757-0.339-0.757-0.754c1.256,0,2.273-1.021,2.273-2.275V7.548
	l1.514-0.25v1.883c0,0.839-0.677,1.514-1.514,1.514H21.705z M31.557,18.06v0.761l-4.92-1.234l-2.121-2.12
	c-0.143-0.142-0.336-0.224-0.537-0.224c-0.418,0-0.757,0.341-0.757,0.759v5.307H20.19v-7.581c0-0.837,0.679-1.515,1.515-1.515h0.857
	c0.674,0,1.313,0.299,1.742,0.817l0,0l2.882,3.461c0.09,0.103,0.208,0.185,0.342,0.232L31.557,18.06z M37.618,19.032v-3.031
	c0.839,0,1.517,0.68,1.517,1.517C39.135,18.354,38.457,19.032,37.618,19.032z M36.104,19.032h-3.031v-1.138l2.525-1.894h0.506
	V19.032z M39.661,33.643l1.848,3.196c0.003,0.007,0.005,0.007,0.006,0.01c0.213,0.363,0.677,0.483,1.038,0.274
	c0.36-0.215,0.481-0.679,0.27-1.039l-1.849-3.2c0.384-0.135,0.788-0.205,1.192-0.211c2.094,0,3.789,1.697,3.789,3.786
	c0,2.098-1.695,3.79-3.789,3.79c-2.093,0-3.789-1.692-3.789-3.79C38.381,35.38,38.848,34.354,39.661,33.643z M38.567,31.156
	l1.674-2.237l2.681-0.011c1.38-0.007,2.588,0.918,2.938,2.248H38.567z M23.4,36.459h-6.242c-0.418,0-0.757-0.336-0.757-0.755v-1.516
	h4.271L23.4,36.459z M12.855,34.188h2.029v1.516c0,1.255,1.017,2.272,2.273,2.272h2.673c-0.699,1.42-2.152,2.302-3.733,2.272
	c-2.174,0.078-3.997-1.618-4.087-3.79C12.02,35.626,12.317,34.823,12.855,34.188z M12.823,25.855h12.671v2.272h-7.579v1.513h7.579
	v4.548c0,0.418,0.341,0.755,0.757,0.755h6.063c0.305,0,0.579-0.181,0.696-0.461l2.274-5.344c0.066-0.152,0.078-0.322,0.04-0.484
	l-2.038-8.108h0.884l4.801,7.543l-4.232,5.646c-0.099,0.131-0.152,0.292-0.152,0.454v1.516c0,0.419-0.337,0.755-0.755,0.755H25.77
	l-4.339-3.609c-0.134-0.116-0.306-0.177-0.482-0.177H9.581v-3.032h1.516v-1.513H9.581v-0.33L12.823,25.855z M3.519,12.212h3.788
	v5.317c0,0.422,0.341,0.759,0.759,0.759h3.031c0.418,0,0.757-0.337,0.757-0.759v-5.317h3.789v12.125H3.519V12.212z"/>
<rect x="10.61" y="30.13" fill="#300F38" width="3.789" height="1.513"/>
</svg>
