<?xml version="1.0" encoding="utf-8"?>
<!-- Generator: Adobe Illustrator 16.0.0, SVG Export Plug-In . SVG Version: 6.00 Build 0)  -->
<!DOCTYPE svg PUBLIC "-//W3C//DTD SVG 1.1//EN" "http://www.w3.org/Graphics/SVG/1.1/DTD/svg11.dtd">
<svg version="1.1" id="Layer_1" xmlns="http://www.w3.org/2000/svg" xmlns:xlink="http://www.w3.org/1999/xlink" x="0px" y="0px"
	 width="69px" height="61px" viewBox="-27.199 -99.115 69 61" enable-background="new -27.199 -99.115 69 61" xml:space="preserve">
<g>
	<rect x="7.809" y="-80.645" fill="#510146" width="1.7" height="4.08"/>
	
		<rect x="1.464" y="-77.375" transform="matrix(0.7074 0.7068 -0.7068 0.7074 -53.0629 -24.8678)" fill="#510146" width="4.081" height="1.7"/>
	<rect x="-0.56" y="-72.276" fill="#510146" width="4.079" height="1.701"/>
	<rect x="13.886" y="-72.188" fill="#510146" width="4.08" height="1.7"/>
	
		<rect x="11.742" y="-77.389" transform="matrix(-0.7068 0.7074 -0.7074 -0.7068 -30.6226 -140.3872)" fill="#510146" width="4.079" height="1.7"/>
	<path fill="#510146" d="M31.871-93.948H-17.46c-2.389,0-4.332,1.982-4.332,4.419v30.303c0,2.436,1.943,4.418,4.332,4.418H2.359
		c0.139,1.752,1.025,3.306,2.452,4.286c0.75,0.502,1.235,1.407,1.235,2.309v0.89l-0.135,0.135c-0.465,0.583-0.65,1.149-0.57,1.706
		c0,0.385,0.034,0.634,0.059,0.835c0.017,0.116,0.029,0.213,0.029,0.31c0,0.106,0.013,0.199,0.028,0.315
		c0.025,0.181,0.059,0.429,0.059,0.919v0.189h1.701v-0.189c0-0.895,0-1.081-0.087-1.41c0-0.069-0.011-0.151-0.027-0.256
		c-0.027-0.174-0.062-0.414-0.062-0.802c0-0.204,0.063-0.342,0.143-0.502c0.072-0.071,0.112-0.102,0.197-0.102h11.273
		c0.042,0.004,0.164,0.064,0.221,0.122c0.115,0.115,0.122,0.214,0.123,0.46c-0.067,0.601-0.084,0.852-0.089,0.944
		c-0.09,0.203-0.09,0.416-0.09,1.456v0.189h1.7v-1.117c0.074-0.165,0.087-0.34,0.141-0.99l0.038-0.463
		c0-0.508-0.156-1.056-0.441-1.548c0.008-0.422,0.114-1.353,0.423-1.893l0.251-0.505c0.524-0.788,1.072-1.777,1.526-3.687
		c0.08-0.479,0.163-1.049,0.176-1.691h9.239c2.436,0,4.418-1.982,4.418-4.418v-30.215C36.289-91.924,34.267-93.948,31.871-93.948z
		 M31.871-56.596h-9.237c-0.004-0.815-0.036-1.627-0.059-2.23c-0.011-0.293-0.02-0.545-0.024-0.737h6.604V-89.28h-46.189v29.717
		H2.346v2.967H-17.46c-1.45,0-2.629-1.219-2.629-2.717v-30.216c0-1.448,1.229-2.719,2.629-2.719h49.331
		c1.473,0,2.717,1.246,2.717,2.719v30.216C34.588-57.84,33.344-56.596,31.871-56.596z M19.802-66.903
		c-0.435,0-0.809,0.083-1.119,0.246c-0.372-1.142-1.4-1.918-2.58-1.918c-0.515,0-1.019,0.156-1.443,0.442
		c-0.509-0.776-1.338-1.234-2.257-1.234c-0.39,0-0.71,0.066-1.044,0.225v-2.414c0-1.514-1.231-2.745-2.744-2.745
		c-1.514,0-2.747,1.232-2.747,2.745v8.66c-0.237-0.136-0.546-0.216-0.866-0.216c-1.166,0-2.182,0.753-2.522,1.85h-17.813v-26.313
		h42.786v26.313h-4.906v-2.982C22.547-65.737,21.342-66.903,19.802-66.903z M19.45-50.4c-0.083,0.163-0.16,0.316-0.309,0.465
		l-0.032,0.042c-0.325,0.571-0.511,1.361-0.547,1.93H7.748v-0.338c0-1.468-0.722-2.843-1.932-3.68
		c-1.108-0.769-1.77-2.028-1.77-3.369v-4.934c0-0.492,0.429-1.042,1.045-1.042c0.493,0,1.042,0.427,1.042,1.042v3.011h1.701v-14.375
		c0-0.492,0.429-1.043,1.044-1.043c0.494,0,1.044,0.429,1.044,1.043v11.026h1.699v-6.093c0-0.493,0.428-1.043,1.043-1.043
		c0.494,0,1.044,0.428,1.044,1.043v5.916h1.701v-5.035c0-0.492,0.428-1.043,1.044-1.043c0.493,0,1.044,0.428,1.044,1.043v6.18h1.7
		v-4.594c0-0.493,0.428-1.042,1.044-1.042c0.493,0,1.044,0.428,1.044,1.042v4.304c-0.201,0.222-0.237,0.896-0.265,2.633
		c-0.022,1.308-0.047,2.791-0.259,3.684c-0.307,1.453-0.753,2.239-1.148,2.931L19.45-50.4z"/>
	<path fill="#510146" d="M31.783-76.68c-1.249,0-2.303,1.055-2.303,2.303c0,1.249,1.055,2.304,2.303,2.304
		c1.249,0,2.303-1.056,2.303-2.304C34.087-75.625,33.032-76.68,31.783-76.68z M31.783-73.863c-0.338,0-0.604-0.264-0.604-0.602
		s0.266-0.603,0.604-0.603c0.337,0,0.602,0.266,0.602,0.603C32.385-73.922,31.965-73.863,31.783-73.863z"/>
</g>
</svg>
